…
Sorting data
------------

We can use functions such as select to specify the data we want to look at:

``` r
select(gapminder, country, year, lifeExp)
```

    ## # A tibble: 1,704 x 3
    ##    country      year lifeExp
    ##    <fct>       <int>   <dbl>
    ##  1 Afghanistan  1952    28.8
    ##  2 Afghanistan  1957    30.3
    ##  3 Afghanistan  1962    32.0
    ##  4 Afghanistan  1967    34.0
    ##  5 Afghanistan  1972    36.1
    ##  6 Afghanistan  1977    38.4
    ##  7 Afghanistan  1982    39.9
    ##  8 Afghanistan  1987    40.8
    ##  9 Afghanistan  1992    41.7
    ## 10 Afghanistan  1997    41.8
    ## # ... with 1,694 more rows

``` r
#first specify the dataframe, followed by all the variables you want to include
```

Alternatively, filter:

``` r
filter(gapminder, lifeExp > 34)
```

    ## # A tibble: 1,680 x 6
    ##    country     continent  year lifeExp      pop gdpPercap
    ##    <fct>       <fct>     <int>   <dbl>    <int>     <dbl>
    ##  1 Afghanistan Asia       1967    34.0 11537966      836.
    ##  2 Afghanistan Asia       1972    36.1 13079460      740.
    ##  3 Afghanistan Asia       1977    38.4 14880372      786.
    ##  4 Afghanistan Asia       1982    39.9 12881816      978.
    ##  5 Afghanistan Asia       1987    40.8 13867957      852.
    ##  6 Afghanistan Asia       1992    41.7 16317921      649.
    ##  7 Afghanistan Asia       1997    41.8 22227415      635.
    ##  8 Afghanistan Asia       2002    42.1 25268405      727.
    ##  9 Afghanistan Asia       2007    43.8 31889923      975.
    ## 10 Albania     Europe     1952    55.2  1282697     1601.
    ## # ... with 1,670 more rows
…
Extra
-----

### Interesting dplyr functions

Arrange dataframe by descending order for a specific variable:

``` r
#Within the `desc()`, specify what variable you want to sort
arrange(gapminder, desc(lifeExp))
```

    ## # A tibble: 1,704 x 6
    ##    country          continent  year lifeExp       pop gdpPercap
    ##    <fct>            <fct>     <int>   <dbl>     <int>     <dbl>
    ##  1 Japan            Asia       2007    82.6 127467972    31656.
    ##  2 Hong Kong, China Asia       2007    82.2   6980412    39725.
    ##  3 Japan            Asia       2002    82   127065841    28605.
    ##  4 Iceland          Europe     2007    81.8    301931    36181.
    ##  5 Switzerland      Europe     2007    81.7   7554661    37506.
    ##  6 Hong Kong, China Asia       2002    81.5   6762476    30209.
    ##  7 Australia        Oceania    2007    81.2  20434176    34435.
    ##  8 Spain            Europe     2007    80.9  40448191    28821.
    ##  9 Sweden           Europe     2007    80.9   9031088    33860.
    ## 10 Israel           Asia       2007    80.7   6426679    25523.
    ## # ... with 1,694 more rows
…
